{
  "project_info": {
    "project_number": "348810162248",
    "firebase_url": "https://stimetabler.firebaseio.com",
    "project_id": "stimetabler",
    "storage_bucket": "stimetabler.appspot.com"
  },
  "client": [
    {
      "client_info": {
        "mobilesdk_app_id": "1:348810162248:android:44571d32d8399292",
        "android_client_info": {
          "package_name": "com.bluetrainsoftware.timetable_ninja"
        }
      },
      "oauth_client": [
        {
          "client_id": "348810162248-inl47r8h11kvgc0qus2in934vtajmq9l.apps.googleusercontent.com",
          "client_type": 3
        }
      ],
      "api_key": [
        {
          "current_key": "AIzaSyAS1eFU46O4yZrmxehJjYn_raXXPxcBdjE"
        }
      ],
      "services": {
        "analytics_service": {
          "status": 1
        },
        "appinvite_service": {
          "status": 1,
          "other_platform_oauth_client": []
        },
        "ads_service": {
          "status": 2
        }
      }
    }
  ],
  "configuration_version": "1"
}